Processing for figures — process_data • stockplotr
…
    Examples

{
  filtered <- stockplotr::filter_data(
    dat = stockplotr:::example_data,
    label_name = "fishing_mortality$",
    geom = "line",
    module = "TIME_SERIES"
  )
  process_data(dat = filtered, method = "sum")
}
#> [[1]]
#> # A tibble: 322 × 8
#>    label      estimate estimate_upper estimate_lower model group_var  year fleet
#>    <chr>         <dbl>          <dbl>          <dbl> <chr> <chr>     <dbl> <chr>
#>  1 fishing_m…  0                   NA             NA label North      1874 North
#>  2 fishing_m…  0                   NA             NA label South      1874 South
#>  3 fishing_m…  0                   NA             NA label North      1875 North
#>  4 fishing_m…  0                   NA             NA label South      1875 South
#>  5 fishing_m…  0                   NA             NA label North      1876 North
#>  6 fishing_m…  3.20e-5             NA             NA label South      1876 South
#>  7 fishing_m…  0                   NA             NA label North      1877 North
#>  8 fishing_m…  3.20e-5             NA             NA label South      1877 South
#>  9 fishing_m…  0                   NA             NA label North      1878 North
#> 10 fishing_m…  3.20e-5             NA             NA label South      1878 South
#> # ℹ 312 more rows
…
